{
  "appName": {
    "message": "Bisque",
    "description": "The name of the application"
  },
  "appDescription": {
    "message": "My Chrome Extension",
    "description": "The description of the application"
  }
}
